…
We can retrieve the four-digit fields and their corresponding two-digit
fields from `abscorr::asced_foe`:

``` r
join_foe2 <- abscorr::asced_foe %>% 
  select(foe2, foe4) %>%   # just keep the variables you want
  distinct()               # only keep unique observations

join_foe2
#> # A tibble: 83 x 2
#>    foe2                          foe4                               
#>    <chr>                         <chr>                              
#>  1 Natural and Physical Sciences Natural and Physical Sciences, nfd 
#>  2 Natural and Physical Sciences Mathematical Sciences              
#>  3 Natural and Physical Sciences Physics and Astronomy              
#>  4 Natural and Physical Sciences Chemical Sciences                  
#>  5 Natural and Physical Sciences Earth Sciences                     
#>  6 Natural and Physical Sciences Biological Sciences                
#>  7 Natural and Physical Sciences Other Natural and Physical Sciences
#>  8 Information Technology        Information Technology, nfd        
#>  9 Information Technology        Computer Science                   
#> 10 Information Technology        Information Systems                
#> # … with 73 more rows
```

And join with our original dataset:

``` r

data %>% 
  left_join(join_foe2)
#> Joining, by = "foe4"
#> # A tibble: 430 x 4
#>    age   foe4                                n foe2                        
#>    <chr> <chr>                           <dbl> <chr>                       
#>  1 20-24 Accounting                      18575 Management and Commerce     
#>  2 20-24 Aerospace Engineering and Tech…  2465 Engineering and Related Tec…
#>  3 20-24 Agriculture                      6668 Agriculture, Environmental …
#>  4 20-24 Agriculture, Environmental and…    42 Agriculture, Environmental …
#>  5 20-24 Architecture and Building, nfd      3 Architecture and Building   
#>  6 20-24 Architecture and Urban Environ…  7527 Architecture and Building   
#>  7 20-24 Automotive Engineering and Tec… 14174 Engineering and Related Tec…
#>  8 20-24 Banking, Finance and Related F…  8704 Management and Commerce     
#>  9 20-24 Behavioural Science              8286 Society and Culture         
#> 10 20-24 Biological Sciences              4038 Natural and Physical Scienc…
#> # … with 420 more rows
```
…
